<?xml version="1.0" encoding="UTF-8"?>
<testsuites>
  <testsuite name="MessagesOverview" file="D:\ETF\6. semestar\Principi softverskog inzenjerstva\Projekat\5) Implementacija\edom_fantasy\application\tests\controllers\MessagesOverview.php" tests="1" assertions="1" failures="0" errors="0" time="0.377005">
    <testcase name="testReportsOverview" class="MessagesOverview" file="D:\ETF\6. semestar\Principi softverskog inzenjerstva\Projekat\5) Implementacija\edom_fantasy\application\tests\controllers\MessagesOverview.php" line="10" assertions="1" time="0.377005"/>
  </testsuite>
</testsuites>
